%YAML 1.1
%TAG !u! tag:unity3d.com,2011:
--- !u!114 &11400000
MonoBehaviour:
  m_ObjectHideFlags: 0
  m_CorrespondingSourceObject: {fileID: 0}
  m_PrefabInstance: {fileID: 0}
  m_PrefabAsset: {fileID: 0}
  m_GameObject: {fileID: 0}
  m_Enabled: 1
  m_EditorHideFlags: 0
  m_Script: {fileID: 11500000, guid: 7653da68a7db8ad4492ba465b7b76779, type: 3}
  m_Name: 984DDBC1-55B0-42B7-94F3-E7792C95FD8E
  m_EditorClassIdentifier: 
  objectName: Play_Menu_Click_01
  id: 1115286468
  guid: 984DDBC1-55B0-42B7-94F3-E7792C95FD8E
