%YAML 1.1
%TAG !u! tag:unity3d.com,2011:
--- !u!1045 &1
EditorBuildSettings:
  m_ObjectHideFlags: 0
  serializedVersion: 2
  m_Scenes:
  - enabled: 1
    path: Assets/Scenes/Final scene's AFBLIJVEN/Main Menu.unity
    guid: aa22c799308f14646a002f6a16326768
  - enabled: 1
    path: Assets/Scenes/Final scene's AFBLIJVEN/Low Fi Desert.unity
    guid: 1d1061aa9f098ff4b976fb1f17f304fd
  - enabled: 1
    path: Assets/Scenes/Final scene's AFBLIJVEN/Bunker_High_Fidelity.unity
    guid: 67b548afb47af24458e061d52bb62ea5
  m_configObjects: {}
