%YAML 1.1
%TAG !u! tag:unity3d.com,2011:
--- !u!114 &11400000
MonoBehaviour:
  m_ObjectHideFlags: 0
  m_CorrespondingSourceObject: {fileID: 0}
  m_PrefabInstance: {fileID: 0}
  m_PrefabAsset: {fileID: 0}
  m_GameObject: {fileID: 0}
  m_Enabled: 1
  m_EditorHideFlags: 0
  m_Script: {fileID: 11500000, guid: 34a7c8ca992f915438a96c2077353778, type: 3}
  m_Name: Ebo AI Behavior
  m_EditorClassIdentifier: 
  brickName: Assets/Behavior/Ebo AI Behavior.asset
  xml: "\uFEFF<?xml version=\"1.0\" encoding=\"utf-8\"?>\r\n<BehaviorBricks xmlns:ref=\"urn:padaone\"
    version=\"1.0\">\r\n  <BehaviorTree id=\"0\" />\r\n  <runtimeInfo>\r\n    <BehaviorTree
    id=\"0\" guid=\"2a0e06bdafbdf41269fbca1bf52513c3\" nextId=\"19\">\r\n      <root>\r\n       
    <RepeatDecorator id=\"1\" />\r\n      </root>\r\n      <inputParams>\r\n       
    <inputValues>\r\n          <entry name=\"targetToFollow\" type=\"UnityEngine.GameObject\"
    isBlackboard=\"False\" />\r\n          <entry name=\"stopSprintingDistance\"
    type=\"System.Single\" isBlackboard=\"False\" value=\"0\" />\r\n        </inputValues>\r\n     
    </inputParams>\r\n      <outputParams />\r\n      <localParams />\r\n    </BehaviorTree>\r\n   
    <RepeatDecorator id=\"1\" loops=\"-1\" policy=\"ContinueWhenChildFails\">\r\n     
    <child>\r\n        <PrioritySelectorNode id=\"2\" />\r\n      </child>\r\n     
    <inputParams />\r\n      <outputParams />\r\n      <localParams />\r\n    </RepeatDecorator>\r\n   
    <PrioritySelectorNode id=\"2\">\r\n      <children>\r\n        <elem>\r\n         
    <GuardAndNode>\r\n            <guard>\r\n              <ConditionEvalNode id=\"6\"
    />\r\n            </guard>\r\n            <child>\r\n              <PrioritySelectorNode
    id=\"3\" />\r\n            </child>\r\n          </GuardAndNode>\r\n        </elem>\r\n       
    <elem>\r\n          <GuardAndNode>\r\n            <guard>\r\n              <ConditionEvalNode
    id=\"7\" />\r\n            </guard>\r\n            <child>\r\n              <ActionNode
    id=\"5\" />\r\n            </child>\r\n          </GuardAndNode>\r\n        </elem>\r\n     
    </children>\r\n      <inputParams />\r\n      <outputParams />\r\n      <localParams
    />\r\n    </PrioritySelectorNode>\r\n    <ConditionEvalNode id=\"6\" policy=\"WAIT_UNTIL_TRUE_AND_COMPLETE\"
    name=\"Nomad/CheckCharacterControlMode\">\r\n      <inputParams>\r\n        <inputValues>\r\n         
    <entry name=\"characterControlMode\" type=\"MovementController+CharacterControlMode\"
    isBlackboard=\"False\" value=\"NonPlayerCharacter\" />\r\n        </inputValues>\r\n     
    </inputParams>\r\n      <outputParams />\r\n      <localParams />\r\n    </ConditionEvalNode>\r\n   
    <PrioritySelectorNode id=\"3\">\r\n      <children>\r\n        <elem>\r\n         
    <GuardAndNode>\r\n            <guard>\r\n              <ConditionEvalNode id=\"8\"
    />\r\n            </guard>\r\n            <child>\r\n              <ParallelNode
    id=\"4\" />\r\n            </child>\r\n          </GuardAndNode>\r\n        </elem>\r\n     
    </children>\r\n      <inputParams />\r\n      <outputParams />\r\n      <localParams
    />\r\n    </PrioritySelectorNode>\r\n    <ConditionEvalNode id=\"7\" policy=\"WAIT_UNTIL_FALSE_AND_FAIL\"
    name=\"AlwaysTrue\">\r\n      <inputParams />\r\n      <outputParams />\r\n     
    <localParams />\r\n    </ConditionEvalNode>\r\n    <ActionNode id=\"5\" action=\"Nomad/Navigation/SyncAgentWithPlayerPosition\">\r\n     
    <inputParams />\r\n      <outputParams />\r\n      <localParams />\r\n    </ActionNode>\r\n   
    <ConditionEvalNode id=\"8\" policy=\"WAIT_UNTIL_FALSE_AND_FAIL\" name=\"Nomad/CheckAIFollowing\">\r\n     
    <inputParams>\r\n        <inputValues>\r\n          <entry name=\"boolean\" type=\"System.Boolean\"
    isBlackboard=\"False\" value=\"True\" />\r\n        </inputValues>\r\n      </inputParams>\r\n     
    <outputParams />\r\n      <localParams />\r\n    </ConditionEvalNode>\r\n   
    <ParallelNode id=\"4\" policy=\"OrPolicy\">\r\n      <children>\r\n        <elem>\r\n         
    <RepeatUntilSuccess id=\"18\" />\r\n        </elem>\r\n        <elem>\r\n         
    <RepeatDecorator id=\"16\" />\r\n        </elem>\r\n      </children>\r\n     
    <inputParams />\r\n      <outputParams />\r\n      <localParams />\r\n    </ParallelNode>\r\n   
    <RepeatUntilSuccess id=\"18\">\r\n      <child>\r\n        <ActionNode id=\"9\"
    />\r\n      </child>\r\n      <inputParams />\r\n      <outputParams />\r\n     
    <localParams />\r\n    </RepeatUntilSuccess>\r\n    <RepeatDecorator id=\"16\"
    loops=\"-1\" policy=\"ContinueWhenChildFails\">\r\n      <child>\r\n        <PrioritySelectorNode
    id=\"11\" />\r\n      </child>\r\n      <inputParams />\r\n      <outputParams
    />\r\n      <localParams />\r\n    </RepeatDecorator>\r\n    <ActionNode id=\"9\"
    action=\"Nomad/Navigation/MoveToTarget\">\r\n      <inputParams>\r\n        <inputValues>\r\n         
    <entry name=\"target\" type=\"UnityEngine.GameObject\" isBlackboard=\"True\"
    blackboard=\"targetToFollow\" />\r\n          <entry name=\"drawPath\" type=\"System.Boolean\"
    isBlackboard=\"True\" blackboard=\"drawPath\" />\r\n        </inputValues>\r\n     
    </inputParams>\r\n      <outputParams />\r\n      <localParams />\r\n    </ActionNode>\r\n   
    <PrioritySelectorNode id=\"11\">\r\n      <children>\r\n        <elem>\r\n         
    <GuardAndNode>\r\n            <guard>\r\n              <ConditionEvalNode id=\"14\"
    />\r\n            </guard>\r\n            <child>\r\n              <ActionNode
    id=\"12\" />\r\n            </child>\r\n          </GuardAndNode>\r\n       
    </elem>\r\n        <elem>\r\n          <GuardAndNode>\r\n            <guard>\r\n             
    <ConditionEvalNode id=\"15\" />\r\n            </guard>\r\n            <child>\r\n             
    <ActionNode id=\"13\" />\r\n            </child>\r\n          </GuardAndNode>\r\n       
    </elem>\r\n      </children>\r\n      <inputParams />\r\n      <outputParams
    />\r\n      <localParams />\r\n    </PrioritySelectorNode>\r\n    <ConditionEvalNode
    id=\"14\" policy=\"WAIT_UNTIL_FALSE_AND_FAIL\" name=\"Perception/IsTargetClose\">\r\n     
    <inputParams>\r\n        <inputValues>\r\n          <entry name=\"target\" type=\"UnityEngine.GameObject\"
    isBlackboard=\"True\" blackboard=\"targetToFollow\" />\r\n          <entry name=\"closeDistance\"
    type=\"System.Single\" isBlackboard=\"True\" blackboard=\"stopSprintingDistance\"
    />\r\n        </inputValues>\r\n      </inputParams>\r\n      <outputParams />\r\n     
    <localParams />\r\n    </ConditionEvalNode>\r\n    <ActionNode id=\"12\" action=\"Nomad/Navigation/ChangeSprintingState\">\r\n     
    <inputParams>\r\n        <inputValues>\r\n          <entry name=\"enabled\" type=\"System.Boolean\"
    isBlackboard=\"False\" value=\"False\" />\r\n        </inputValues>\r\n     
    </inputParams>\r\n      <outputParams />\r\n      <localParams />\r\n    </ActionNode>\r\n   
    <ConditionEvalNode id=\"15\" policy=\"WAIT_UNTIL_TRUE_AND_COMPLETE\" name=\"AlwaysTrue\">\r\n     
    <inputParams />\r\n      <outputParams />\r\n      <localParams />\r\n    </ConditionEvalNode>\r\n   
    <ActionNode id=\"13\" action=\"Nomad/Navigation/ChangeSprintingState\">\r\n     
    <inputParams>\r\n        <inputValues>\r\n          <entry name=\"enabled\" type=\"System.Boolean\"
    isBlackboard=\"False\" value=\"True\" />\r\n        </inputValues>\r\n      </inputParams>\r\n     
    <outputParams />\r\n      <localParams />\r\n    </ActionNode>\r\n  </runtimeInfo>\r\n 
    <editorInfo>\r\n    <BehaviorTree id=\"0\" _name=\"Ebo AI Behavior\" _description=\"\"
    _removeIfClosed=\"False\">\r\n      <_rootList>\r\n        <elem>\r\n         
    <RepeatDecorator id=\"1\" />\r\n        </elem>\r\n        <elem>\r\n         
    <PrioritySelectorNode id=\"2\" />\r\n        </elem>\r\n        <elem>\r\n         
    <PrioritySelectorNode id=\"3\" />\r\n        </elem>\r\n        <elem>\r\n         
    <ParallelNode id=\"4\" />\r\n        </elem>\r\n        <elem>\r\n          <ActionNode
    id=\"5\" />\r\n        </elem>\r\n        <elem>\r\n          <ConditionEvalNode
    id=\"6\" />\r\n        </elem>\r\n        <elem>\r\n          <ConditionEvalNode
    id=\"7\" />\r\n        </elem>\r\n        <elem>\r\n          <ConditionEvalNode
    id=\"8\" />\r\n        </elem>\r\n        <elem>\r\n          <ActionNode id=\"9\"
    />\r\n        </elem>\r\n        <elem>\r\n          <PrioritySelectorNode id=\"11\"
    />\r\n        </elem>\r\n        <elem>\r\n          <ActionNode id=\"12\" />\r\n       
    </elem>\r\n        <elem>\r\n          <ActionNode id=\"13\" />\r\n        </elem>\r\n       
    <elem>\r\n          <ConditionEvalNode id=\"14\" />\r\n        </elem>\r\n       
    <elem>\r\n          <ConditionEvalNode id=\"15\" />\r\n        </elem>\r\n       
    <elem>\r\n          <RepeatDecorator id=\"16\" />\r\n        </elem>\r\n       
    <elem>\r\n          <RepeatUntilSuccess id=\"18\" />\r\n        </elem>\r\n     
    </_rootList>\r\n      <_nodes>\r\n        <nodes>\r\n          <RepeatDecorator
    id=\"1\" />\r\n          <PrioritySelectorNode id=\"2\" />\r\n          <PrioritySelectorNode
    id=\"3\" />\r\n          <ParallelNode id=\"4\" />\r\n          <ActionNode id=\"5\"
    />\r\n          <ConditionEvalNode id=\"6\" />\r\n          <ConditionEvalNode
    id=\"7\" />\r\n          <ConditionEvalNode id=\"8\" />\r\n          <ActionNode
    id=\"9\" />\r\n          <PrioritySelectorNode id=\"11\" />\r\n          <ActionNode
    id=\"12\" />\r\n          <ActionNode id=\"13\" />\r\n          <ConditionEvalNode
    id=\"14\" />\r\n          <ConditionEvalNode id=\"15\" />\r\n          <RepeatDecorator
    id=\"16\" />\r\n          <RepeatUntilSuccess id=\"18\" />\r\n        </nodes>\r\n     
    </_nodes>\r\n    </BehaviorTree>\r\n    <RepeatDecorator id=\"1\">\r\n      <_data>\r\n       
    <data breakpoint=\"0\" selected=\"False\" position=\"561.5 28.75\" name=\"Repeat\"
    description=\"Repeats the execution of its child node\" cardinality=\"1\" hasParent=\"False\">\r\n         
    <BehaviorTree id=\"0\" />\r\n          <RepeatDecorator id=\"1\" />\r\n       
    </data>\r\n      </_data>\r\n    </RepeatDecorator>\r\n    <PrioritySelectorNode
    id=\"2\">\r\n      <_data>\r\n        <data breakpoint=\"0\" selected=\"False\"
    position=\"504.5 133.75\" name=\"Priority Selector\" description=\"\" cardinality=\"1\"
    hasParent=\"True\">\r\n          <BehaviorTree id=\"0\" />\r\n          <PrioritySelectorNode
    id=\"2\" />\r\n          <RepeatDecorator id=\"1\" />\r\n        </data>\r\n     
    </_data>\r\n    </PrioritySelectorNode>\r\n    <ConditionEvalNode id=\"6\">\r\n     
    <_data>\r\n        <data breakpoint=\"0\" selected=\"False\" position=\"461.5
    246.75\" name=\"Nomad/CheckCharacterControlMode\" description=\"Eval\" cardinality=\"1\"
    hasParent=\"True\">\r\n          <BehaviorTree id=\"0\" />\r\n          <ConditionEvalNode
    id=\"6\" />\r\n          <PrioritySelectorNode id=\"2\" />\r\n        </data>\r\n     
    </_data>\r\n    </ConditionEvalNode>\r\n    <PrioritySelectorNode id=\"3\">\r\n     
    <_data>\r\n        <data breakpoint=\"0\" selected=\"False\" position=\"461.5
    246.75\" name=\"Priority Selector\" description=\"\" cardinality=\"1\" hasParent=\"False\">\r\n         
    <BehaviorTree id=\"0\" />\r\n          <PrioritySelectorNode id=\"3\" />\r\n       
    </data>\r\n      </_data>\r\n    </PrioritySelectorNode>\r\n    <ConditionEvalNode
    id=\"7\">\r\n      <_data>\r\n        <data breakpoint=\"0\" selected=\"False\"
    position=\"793.5 249.75\" name=\"AlwaysTrue\" description=\"Eval\" cardinality=\"1\"
    hasParent=\"True\">\r\n          <BehaviorTree id=\"0\" />\r\n          <ConditionEvalNode
    id=\"7\" />\r\n          <PrioritySelectorNode id=\"2\" />\r\n        </data>\r\n     
    </_data>\r\n    </ConditionEvalNode>\r\n    <ActionNode id=\"5\">\r\n      <_data>\r\n       
    <data breakpoint=\"0\" selected=\"False\" position=\"793.5 249.75\" name=\"Nomad/Navigation/SyncAgentWithPlayerPosition\"
    description=\"Sets the position of the NavMeshAgent equal to the position of
    the transform of the character.\" cardinality=\"0\" hasParent=\"False\">\r\n         
    <BehaviorTree id=\"0\" />\r\n          <ActionNode id=\"5\" />\r\n        </data>\r\n     
    </_data>\r\n    </ActionNode>\r\n    <ConditionEvalNode id=\"8\">\r\n      <_data>\r\n       
    <data breakpoint=\"0\" selected=\"False\" position=\"508.5 431.75\" name=\"Nomad/CheckAIFollowing\"
    description=\"Eval\" cardinality=\"1\" hasParent=\"True\">\r\n          <BehaviorTree
    id=\"0\" />\r\n          <ConditionEvalNode id=\"8\" />\r\n          <PrioritySelectorNode
    id=\"3\" />\r\n        </data>\r\n      </_data>\r\n    </ConditionEvalNode>\r\n   
    <ParallelNode id=\"4\">\r\n      <_data>\r\n        <data breakpoint=\"0\" selected=\"False\"
    position=\"508.5 431.75\" name=\"Parallel\" description=\"Executes all its children
    in parallel until all of them are successful\" cardinality=\"-1\" hasParent=\"False\">\r\n         
    <BehaviorTree id=\"0\" />\r\n          <ParallelNode id=\"4\" />\r\n        </data>\r\n     
    </_data>\r\n    </ParallelNode>\r\n    <RepeatUntilSuccess id=\"18\">\r\n     
    <_data>\r\n        <data breakpoint=\"0\" selected=\"False\" position=\"481.25
    595\" name=\"Repeat Until Success\" description=\"Repeats the execution of its
    child node until it success\" cardinality=\"1\" hasParent=\"True\">\r\n         
    <BehaviorTree id=\"0\" />\r\n          <RepeatUntilSuccess id=\"18\" />\r\n         
    <ParallelNode id=\"4\" />\r\n        </data>\r\n      </_data>\r\n    </RepeatUntilSuccess>\r\n   
    <RepeatDecorator id=\"16\">\r\n      <_data>\r\n        <data breakpoint=\"0\"
    selected=\"False\" position=\"865 537.5\" name=\"Repeat\" description=\"Repeats
    the execution of its child node\" cardinality=\"1\" hasParent=\"True\">\r\n         
    <BehaviorTree id=\"0\" />\r\n          <RepeatDecorator id=\"16\" />\r\n         
    <ParallelNode id=\"4\" />\r\n        </data>\r\n      </_data>\r\n    </RepeatDecorator>\r\n   
    <ActionNode id=\"9\">\r\n      <_data>\r\n        <data breakpoint=\"0\" selected=\"True\"
    position=\"521 702.5\" name=\"Nomad/Navigation/MoveToTarget\" description=\"Move
    to target by using the MovementController.\" cardinality=\"0\" hasParent=\"True\">\r\n         
    <BehaviorTree id=\"0\" />\r\n          <ActionNode id=\"9\" />\r\n          <RepeatUntilSuccess
    id=\"18\" />\r\n        </data>\r\n      </_data>\r\n    </ActionNode>\r\n   
    <PrioritySelectorNode id=\"11\">\r\n      <_data>\r\n        <data breakpoint=\"0\"
    selected=\"False\" position=\"810.5 636.75\" name=\"Priority Selector\" description=\"\"
    cardinality=\"1\" hasParent=\"True\">\r\n          <BehaviorTree id=\"0\" />\r\n         
    <PrioritySelectorNode id=\"11\" />\r\n          <RepeatDecorator id=\"16\" />\r\n       
    </data>\r\n      </_data>\r\n    </PrioritySelectorNode>\r\n    <ConditionEvalNode
    id=\"14\">\r\n      <_data>\r\n        <data breakpoint=\"0\" selected=\"False\"
    position=\"824.75 751\" name=\"Perception/IsTargetClose\" description=\"Eval\"
    cardinality=\"1\" hasParent=\"True\">\r\n          <BehaviorTree id=\"0\" />\r\n         
    <ConditionEvalNode id=\"14\" />\r\n          <PrioritySelectorNode id=\"11\"
    />\r\n        </data>\r\n      </_data>\r\n    </ConditionEvalNode>\r\n    <ActionNode
    id=\"12\">\r\n      <_data>\r\n        <data breakpoint=\"0\" selected=\"False\"
    position=\"824.75 751\" name=\"Nomad/Navigation/ChangeSprintingState\" description=\"Changes
    the sprinting state of the AI and adjusts speeds accordingly.\" cardinality=\"0\"
    hasParent=\"False\">\r\n          <BehaviorTree id=\"0\" />\r\n          <ActionNode
    id=\"12\" />\r\n        </data>\r\n      </_data>\r\n    </ActionNode>\r\n   
    <ConditionEvalNode id=\"15\">\r\n      <_data>\r\n        <data breakpoint=\"0\"
    selected=\"False\" position=\"1116.75 753.25\" name=\"AlwaysTrue\" description=\"Eval\"
    cardinality=\"1\" hasParent=\"True\">\r\n          <BehaviorTree id=\"0\" />\r\n         
    <ConditionEvalNode id=\"15\" />\r\n          <PrioritySelectorNode id=\"11\"
    />\r\n        </data>\r\n      </_data>\r\n    </ConditionEvalNode>\r\n    <ActionNode
    id=\"13\">\r\n      <_data>\r\n        <data breakpoint=\"0\" selected=\"False\"
    position=\"1116.75 753.25\" name=\"Nomad/Navigation/ChangeSprintingState\" description=\"Changes
    the sprinting state of the AI and adjusts speeds accordingly.\" cardinality=\"0\"
    hasParent=\"False\">\r\n          <BehaviorTree id=\"0\" />\r\n          <ActionNode
    id=\"13\" />\r\n        </data>\r\n      </_data>\r\n    </ActionNode>\r\n  </editorInfo>\r\n</BehaviorBricks>"
  zoom: 0.8
  subslist: []
  _guid: 2a0e06bdafbdf41269fbca1bf52513c3
