%YAML 1.1
%TAG !u! tag:unity3d.com,2011:
--- !u!114 &11400000
MonoBehaviour:
  m_ObjectHideFlags: 0
  m_CorrespondingSourceObject: {fileID: 0}
  m_PrefabInstance: {fileID: 0}
  m_PrefabAsset: {fileID: 0}
  m_GameObject: {fileID: 0}
  m_Enabled: 1
  m_EditorHideFlags: 0
  m_Script: {fileID: 11500000, guid: 34a7c8ca992f915438a96c2077353778, type: 3}
  m_Name: RatBehaviour
  m_EditorClassIdentifier: 
  brickName: Assets/Behavior/RatBehaviour.asset
  xml: "\uFEFF<?xml version=\"1.0\" encoding=\"utf-8\"?>\r\n<BehaviorBricks xmlns:ref=\"urn:padaone\"
    version=\"1.0\">\r\n  <BehaviorTree id=\"0\" />\r\n  <runtimeInfo>\r\n    <BehaviorTree
    id=\"0\" guid=\"f2536858bd0c157429bc6d976b356ef4\" nextId=\"81\">\r\n      <root>\r\n       
    <RepeatDecorator id=\"10\" />\r\n      </root>\r\n      <inputParams>\r\n       
    <inputValues>\r\n          <entry name=\"attackingDistance\" type=\"System.Single\"
    isBlackboard=\"False\" value=\"0\" />\r\n          <entry name=\"chargeDuration\"
    type=\"System.Single\" isBlackboard=\"False\" value=\"0\" />\r\n          <entry
    name=\"waitingDuration\" type=\"System.Single\" isBlackboard=\"False\" value=\"0\"
    />\r\n          <entry name=\"angle\" type=\"System.Single\" isBlackboard=\"False\"
    value=\"0\" />\r\n          <entry name=\"Rat\" type=\"RatBehaviour\" isBlackboard=\"False\"
    />\r\n          <entry name=\"Sight Distance\" type=\"System.Single\" isBlackboard=\"False\"
    value=\"0\" />\r\n          <entry name=\"Target Ebo\" type=\"UnityEngine.GameObject\"
    isBlackboard=\"False\" />\r\n          <entry name=\"Target CC\" type=\"UnityEngine.GameObject\"
    isBlackboard=\"False\" />\r\n        </inputValues>\r\n      </inputParams>\r\n     
    <outputParams>\r\n        <outputValues>\r\n          <entry name=\"closestTarget\"
    type=\"UnityEngine.GameObject\" isBlackboard=\"True\" />\r\n        </outputValues>\r\n     
    </outputParams>\r\n      <localParams />\r\n    </BehaviorTree>\r\n    <RepeatDecorator
    id=\"10\" loops=\"-1\" policy=\"ContinueWhenChildFails\">\r\n      <child>\r\n       
    <PrioritySelectorNode id=\"11\" />\r\n      </child>\r\n      <inputParams />\r\n     
    <outputParams />\r\n      <localParams />\r\n    </RepeatDecorator>\r\n    <PrioritySelectorNode
    id=\"11\">\r\n      <children>\r\n        <elem>\r\n          <GuardAndNode>\r\n           
    <guard>\r\n              <ConditionEvalNode id=\"79\" />\r\n            </guard>\r\n           
    <child>\r\n              <PrioritySelectorNode id=\"78\" />\r\n            </child>\r\n         
    </GuardAndNode>\r\n        </elem>\r\n      </children>\r\n      <inputParams
    />\r\n      <outputParams />\r\n      <localParams />\r\n    </PrioritySelectorNode>\r\n   
    <ConditionEvalNode id=\"79\" policy=\"WAIT_UNTIL_FALSE_AND_FAIL\" name=\"CheckSightDistance\">\r\n     
    <inputParams>\r\n        <inputValues>\r\n          <entry name=\"target player\"
    type=\"UnityEngine.GameObject\" isBlackboard=\"True\" blackboard=\"target player\"
    />\r\n          <entry name=\"target cc\" type=\"UnityEngine.GameObject\" isBlackboard=\"True\"
    blackboard=\"target cc\" />\r\n          <entry name=\"closeDistance\" type=\"System.Single\"
    isBlackboard=\"True\" blackboard=\"closeDistance\" />\r\n          <entry name=\"angle\"
    type=\"System.Single\" isBlackboard=\"True\" blackboard=\"angle\" />\r\n         
    <entry name=\"Target Ebo\" type=\"UnityEngine.GameObject\" isBlackboard=\"True\"
    blackboard=\"Target Ebo\" />\r\n          <entry name=\"Target CC\" type=\"UnityEngine.GameObject\"
    isBlackboard=\"True\" blackboard=\"Target CC\" />\r\n          <entry name=\"Sight
    Distance\" type=\"System.Single\" isBlackboard=\"True\" blackboard=\"Sight Distance\"
    />\r\n        </inputValues>\r\n      </inputParams>\r\n      <outputParams>\r\n       
    <outputValues>\r\n          <entry name=\"closestTarget\" type=\"UnityEngine.GameObject\"
    isBlackboard=\"True\" blackboard=\"closestTarget\" />\r\n          <entry name=\"Closest
    Target\" type=\"UnityEngine.GameObject\" isBlackboard=\"True\" blackboard=\"closestTarget\"
    />\r\n        </outputValues>\r\n      </outputParams>\r\n      <localParams
    />\r\n    </ConditionEvalNode>\r\n    <PrioritySelectorNode id=\"78\">\r\n     
    <children>\r\n        <elem>\r\n          <GuardAndNode>\r\n            <guard>\r\n             
    <ConditionEvalNode id=\"80\" />\r\n            </guard>\r\n            <child>\r\n             
    <PrioritySelectorNode id=\"59\" />\r\n            </child>\r\n          </GuardAndNode>\r\n       
    </elem>\r\n      </children>\r\n      <inputParams />\r\n      <outputParams
    />\r\n      <localParams />\r\n    </PrioritySelectorNode>\r\n    <ConditionEvalNode
    id=\"80\" policy=\"WAIT_UNTIL_FALSE_AND_FAIL\" name=\"Perception/CheckTargetDistance\">\r\n     
    <inputParams>\r\n        <inputValues>\r\n          <entry name=\"target player\"
    type=\"UnityEngine.GameObject\" isBlackboard=\"True\" blackboard=\"target player\"
    />\r\n          <entry name=\"target cc\" type=\"UnityEngine.GameObject\" isBlackboard=\"True\"
    blackboard=\"target cc\" />\r\n          <entry name=\"closeDistance\" type=\"System.Single\"
    isBlackboard=\"True\" blackboard=\"closeDistance\" />\r\n          <entry name=\"Target
    ebo\" type=\"UnityEngine.GameObject\" isBlackboard=\"True\" blackboard=\"Target
    Ebo\" />\r\n          <entry name=\"Target CC\" type=\"UnityEngine.GameObject\"
    isBlackboard=\"True\" blackboard=\"Target CC\" />\r\n          <entry name=\"Sight
    Distance\" type=\"System.Single\" isBlackboard=\"True\" blackboard=\"Sight Distance\"
    />\r\n        </inputValues>\r\n      </inputParams>\r\n      <outputParams>\r\n       
    <outputValues>\r\n          <entry name=\"closestTarget\" type=\"UnityEngine.GameObject\"
    isBlackboard=\"True\" blackboard=\"closestTarget\" />\r\n          <entry name=\"Closest
    Target\" type=\"UnityEngine.GameObject\" isBlackboard=\"True\" blackboard=\"closestTarget\"
    />\r\n        </outputValues>\r\n      </outputParams>\r\n      <localParams
    />\r\n    </ConditionEvalNode>\r\n    <PrioritySelectorNode id=\"59\">\r\n     
    <children>\r\n        <elem>\r\n          <GuardAndNode>\r\n            <guard>\r\n             
    <ConditionEvalNode id=\"61\" />\r\n            </guard>\r\n            <child>\r\n             
    <SequenceNode id=\"52\" />\r\n            </child>\r\n          </GuardAndNode>\r\n       
    </elem>\r\n        <elem>\r\n          <GuardAndNode>\r\n            <guard>\r\n             
    <ConditionEvalNode id=\"71\" />\r\n            </guard>\r\n            <child>\r\n             
    <PrioritySelectorNode id=\"48\" />\r\n            </child>\r\n          </GuardAndNode>\r\n       
    </elem>\r\n      </children>\r\n      <inputParams />\r\n      <outputParams
    />\r\n      <localParams />\r\n    </PrioritySelectorNode>\r\n    <ConditionEvalNode
    id=\"61\" policy=\"WAIT_UNTIL_FALSE_AND_FAIL\" name=\"Perception/IsTargetClose\">\r\n     
    <inputParams>\r\n        <inputValues>\r\n          <entry name=\"target\" type=\"UnityEngine.GameObject\"
    isBlackboard=\"True\" blackboard=\"closestTarget\" />\r\n          <entry name=\"closeDistance\"
    type=\"System.Single\" isBlackboard=\"True\" blackboard=\"attackingDistance\"
    />\r\n        </inputValues>\r\n      </inputParams>\r\n      <outputParams />\r\n     
    <localParams />\r\n    </ConditionEvalNode>\r\n    <SequenceNode id=\"52\">\r\n     
    <children>\r\n        <elem>\r\n          <ActionNode id=\"55\" />\r\n       
    </elem>\r\n        <elem>\r\n          <ConditionNode id=\"56\" />\r\n       
    </elem>\r\n        <elem>\r\n          <ActionNode id=\"57\" />\r\n        </elem>\r\n       
    <elem>\r\n          <ActionNode id=\"58\" />\r\n        </elem>\r\n      </children>\r\n     
    <inputParams />\r\n      <outputParams />\r\n      <localParams />\r\n    </SequenceNode>\r\n   
    <ConditionEvalNode id=\"71\" policy=\"WAIT_UNTIL_FALSE_AND_FAIL\" name=\"AlwaysTrue\">\r\n     
    <inputParams />\r\n      <outputParams />\r\n      <localParams />\r\n    </ConditionEvalNode>\r\n   
    <PrioritySelectorNode id=\"48\">\r\n      <children>\r\n        <elem>\r\n         
    <GuardAndNode>\r\n            <guard>\r\n              <ConditionEvalNode id=\"50\"
    />\r\n            </guard>\r\n            <child>\r\n              <ActionNode
    id=\"15\" />\r\n            </child>\r\n          </GuardAndNode>\r\n       
    </elem>\r\n        <elem>\r\n          <GuardAndNode>\r\n            <guard>\r\n             
    <ConditionEvalNode id=\"51\" />\r\n            </guard>\r\n            <child>\r\n             
    <ActionNode id=\"37\" />\r\n            </child>\r\n          </GuardAndNode>\r\n       
    </elem>\r\n      </children>\r\n      <inputParams />\r\n      <outputParams
    />\r\n      <localParams />\r\n    </PrioritySelectorNode>\r\n    <ActionNode
    id=\"55\" action=\"Basic/WaitForSeconds\">\r\n      <inputParams>\r\n       
    <inputValues>\r\n          <entry name=\"seconds\" type=\"System.Single\" isBlackboard=\"True\"
    blackboard=\"chargeDuration\" />\r\n        </inputValues>\r\n      </inputParams>\r\n     
    <outputParams />\r\n      <localParams />\r\n    </ActionNode>\r\n    <ConditionNode
    id=\"56\">\r\n      <condition>\r\n        <ConditionEvalNode id=\"0\" />\r\n     
    </condition>\r\n      <inputParams>\r\n        <inputValues>\r\n          <entry
    name=\"target\" type=\"UnityEngine.GameObject\" isBlackboard=\"True\" blackboard=\"closestTarget\"
    />\r\n          <entry name=\"closeDistance\" type=\"System.Single\" isBlackboard=\"True\"
    blackboard=\"attackingDistance\" />\r\n        </inputValues>\r\n      </inputParams>\r\n     
    <outputParams />\r\n      <localParams />\r\n    </ConditionNode>\r\n    <ActionNode
    id=\"57\" action=\"RatAction/Attack\">\r\n      <inputParams>\r\n        <inputValues>\r\n         
    <entry name=\"target\" type=\"UnityEngine.GameObject\" isBlackboard=\"True\"
    blackboard=\"closestTarget\" />\r\n          <entry name=\"Target\" type=\"ratMovement\"
    isBlackboard=\"True\" blackboard=\"Rat\" />\r\n          <entry name=\"Enemy
    health\" type=\"UnityEngine.GameObject\" isBlackboard=\"True\" blackboard=\"Enemy
    health\" />\r\n          <entry name=\"Ebo health\" type=\"UnityEngine.GameObject\"
    isBlackboard=\"True\" blackboard=\"Ebo health\" />\r\n          <entry name=\"CC
    health\" type=\"UnityEngine.GameObject\" isBlackboard=\"True\" blackboard=\"CC
    health\" />\r\n          <entry name=\"Rat\" type=\"RatBehaviour\" isBlackboard=\"True\"
    blackboard=\"Rat\" />\r\n          <entry name=\"closestTarget\" type=\"UnityEngine.GameObject\"
    isBlackboard=\"True\" blackboard=\"closestTarget\" />\r\n        </inputValues>\r\n     
    </inputParams>\r\n      <outputParams />\r\n      <localParams />\r\n    </ActionNode>\r\n   
    <ActionNode id=\"58\" action=\"Basic/WaitForSeconds\">\r\n      <inputParams>\r\n       
    <inputValues>\r\n          <entry name=\"seconds\" type=\"System.Single\" isBlackboard=\"True\"
    blackboard=\"waitingDuration\" />\r\n        </inputValues>\r\n      </inputParams>\r\n     
    <outputParams />\r\n      <localParams />\r\n    </ActionNode>\r\n    <ConditionEvalNode
    id=\"50\" policy=\"WAIT_UNTIL_FALSE_AND_FAIL\" name=\"Perception/CheckEboDistance\">\r\n     
    <inputParams>\r\n        <inputValues>\r\n          <entry name=\"target player\"
    type=\"UnityEngine.GameObject\" isBlackboard=\"True\" blackboard=\"target player\"
    />\r\n          <entry name=\"target cc\" type=\"UnityEngine.GameObject\" isBlackboard=\"True\"
    blackboard=\"target cc\" />\r\n          <entry name=\"closeDistance\" type=\"System.Single\"
    isBlackboard=\"True\" blackboard=\"closeDistance\" />\r\n          <entry name=\"Target
    ebo\" type=\"UnityEngine.GameObject\" isBlackboard=\"True\" blackboard=\"Target
    Ebo\" />\r\n          <entry name=\"Target CC\" type=\"UnityEngine.GameObject\"
    isBlackboard=\"True\" blackboard=\"Target CC\" />\r\n          <entry name=\"Sight
    Distance\" type=\"System.Single\" isBlackboard=\"True\" blackboard=\"Sight Distance\"
    />\r\n        </inputValues>\r\n      </inputParams>\r\n      <outputParams>\r\n       
    <outputValues>\r\n          <entry name=\"closestTarget\" type=\"UnityEngine.GameObject\"
    isBlackboard=\"True\" blackboard=\"closestTarget\" />\r\n          <entry name=\"Closest
    Target\" type=\"UnityEngine.GameObject\" isBlackboard=\"True\" blackboard=\"closestTarget\"
    />\r\n        </outputValues>\r\n      </outputParams>\r\n      <localParams
    />\r\n    </ConditionEvalNode>\r\n    <ActionNode id=\"15\" action=\"Navigation/MoveToGameObject\">\r\n     
    <inputParams>\r\n        <inputValues>\r\n          <entry name=\"target\" type=\"UnityEngine.GameObject\"
    isBlackboard=\"True\" blackboard=\"Target Ebo\" />\r\n        </inputValues>\r\n     
    </inputParams>\r\n      <outputParams />\r\n      <localParams />\r\n    </ActionNode>\r\n   
    <ConditionEvalNode id=\"51\" policy=\"WAIT_UNTIL_TRUE_AND_COMPLETE\" name=\"Perception/CheckCCDistance\">\r\n     
    <inputParams>\r\n        <inputValues>\r\n          <entry name=\"target player\"
    type=\"UnityEngine.GameObject\" isBlackboard=\"True\" blackboard=\"target player\"
    />\r\n          <entry name=\"target cc\" type=\"UnityEngine.GameObject\" isBlackboard=\"True\"
    blackboard=\"target cc\" />\r\n          <entry name=\"closeDistance\" type=\"System.Single\"
    isBlackboard=\"True\" blackboard=\"closeDistance\" />\r\n          <entry name=\"Target
    Ebo\" type=\"UnityEngine.GameObject\" isBlackboard=\"True\" blackboard=\"Target
    Ebo\" />\r\n          <entry name=\"Target CC\" type=\"UnityEngine.GameObject\"
    isBlackboard=\"True\" blackboard=\"Target CC\" />\r\n          <entry name=\"Sight
    Distance\" type=\"System.Single\" isBlackboard=\"True\" blackboard=\"Sight Distance\"
    />\r\n        </inputValues>\r\n      </inputParams>\r\n      <outputParams>\r\n       
    <outputValues>\r\n          <entry name=\"closestTarget\" type=\"UnityEngine.GameObject\"
    isBlackboard=\"True\" blackboard=\"closestTarget\" />\r\n          <entry name=\"Closest
    Target\" type=\"UnityEngine.GameObject\" isBlackboard=\"True\" blackboard=\"closestTarget\"
    />\r\n        </outputValues>\r\n      </outputParams>\r\n      <localParams
    />\r\n    </ConditionEvalNode>\r\n    <ActionNode id=\"37\" action=\"Navigation/MoveToGameObject\">\r\n     
    <inputParams>\r\n        <inputValues>\r\n          <entry name=\"target\" type=\"UnityEngine.GameObject\"
    isBlackboard=\"True\" blackboard=\"Target CC\" />\r\n        </inputValues>\r\n     
    </inputParams>\r\n      <outputParams />\r\n      <localParams />\r\n    </ActionNode>\r\n   
    <ConditionEvalNode id=\"0\" policy=\"ATOMIC_CHECK\" name=\"Perception/IsTargetClose\">\r\n     
    <inputParams />\r\n      <outputParams />\r\n      <localParams />\r\n    </ConditionEvalNode>\r\n 
    </runtimeInfo>\r\n  <editorInfo>\r\n    <BehaviorTree id=\"0\" _name=\"RatBehaviour\"
    _description=\"\" _removeIfClosed=\"False\">\r\n      <_rootList>\r\n       
    <elem>\r\n          <RepeatDecorator id=\"10\" />\r\n        </elem>\r\n       
    <elem>\r\n          <PrioritySelectorNode id=\"11\" />\r\n        </elem>\r\n       
    <elem>\r\n          <ActionNode id=\"15\" />\r\n        </elem>\r\n        <elem>\r\n         
    <ActionNode id=\"37\" />\r\n        </elem>\r\n        <elem>\r\n          <PrioritySelectorNode
    id=\"48\" />\r\n        </elem>\r\n        <elem>\r\n          <ConditionEvalNode
    id=\"50\" />\r\n        </elem>\r\n        <elem>\r\n          <ConditionEvalNode
    id=\"51\" />\r\n        </elem>\r\n        <elem>\r\n          <SequenceNode
    id=\"52\" />\r\n        </elem>\r\n        <elem>\r\n          <ActionNode id=\"55\"
    />\r\n        </elem>\r\n        <elem>\r\n          <ConditionNode id=\"56\"
    />\r\n        </elem>\r\n        <elem>\r\n          <ActionNode id=\"57\" />\r\n       
    </elem>\r\n        <elem>\r\n          <ActionNode id=\"58\" />\r\n        </elem>\r\n       
    <elem>\r\n          <PrioritySelectorNode id=\"59\" />\r\n        </elem>\r\n       
    <elem>\r\n          <ConditionEvalNode id=\"61\" />\r\n        </elem>\r\n       
    <elem>\r\n          <ConditionEvalNode id=\"71\" />\r\n        </elem>\r\n       
    <elem>\r\n          <PrioritySelectorNode id=\"78\" />\r\n        </elem>\r\n       
    <elem>\r\n          <ConditionEvalNode id=\"79\" />\r\n        </elem>\r\n       
    <elem>\r\n          <ConditionEvalNode id=\"80\" />\r\n        </elem>\r\n     
    </_rootList>\r\n      <_nodes>\r\n        <nodes>\r\n          <RepeatDecorator
    id=\"10\" />\r\n          <PrioritySelectorNode id=\"11\" />\r\n          <ActionNode
    id=\"15\" />\r\n          <ActionNode id=\"37\" />\r\n          <PrioritySelectorNode
    id=\"48\" />\r\n          <ConditionEvalNode id=\"61\" />\r\n          <SequenceNode
    id=\"52\" />\r\n          <ConditionEvalNode id=\"50\" />\r\n          <ConditionEvalNode
    id=\"51\" />\r\n          <ActionNode id=\"55\" />\r\n          <ConditionNode
    id=\"56\" />\r\n          <ActionNode id=\"57\" />\r\n          <ActionNode id=\"58\"
    />\r\n          <PrioritySelectorNode id=\"59\" />\r\n          <ConditionEvalNode
    id=\"80\" />\r\n          <ConditionEvalNode id=\"71\" />\r\n          <PrioritySelectorNode
    id=\"78\" />\r\n          <ConditionEvalNode id=\"79\" />\r\n        </nodes>\r\n     
    </_nodes>\r\n    </BehaviorTree>\r\n    <RepeatDecorator id=\"10\">\r\n     
    <_data>\r\n        <data breakpoint=\"0\" selected=\"False\" position=\"875.527
    80.04373\" name=\"Repeat\" description=\"Repeats the execution of its child node\"
    cardinality=\"1\" hasParent=\"False\">\r\n          <BehaviorTree id=\"0\" />\r\n         
    <RepeatDecorator id=\"10\" />\r\n        </data>\r\n      </_data>\r\n    </RepeatDecorator>\r\n   
    <PrioritySelectorNode id=\"11\">\r\n      <_data>\r\n        <data breakpoint=\"0\"
    selected=\"False\" position=\"812.2504 198.8768\" name=\"Priority Selector\"
    description=\"\" cardinality=\"1\" hasParent=\"True\">\r\n          <BehaviorTree
    id=\"0\" />\r\n          <PrioritySelectorNode id=\"11\" />\r\n          <RepeatDecorator
    id=\"10\" />\r\n        </data>\r\n      </_data>\r\n    </PrioritySelectorNode>\r\n   
    <ConditionEvalNode id=\"79\">\r\n      <_data>\r\n        <data breakpoint=\"0\"
    selected=\"False\" position=\"1557.943 477.8336\" name=\"CheckSightDistance\"
    description=\"Eval\" cardinality=\"1\" hasParent=\"True\">\r\n          <BehaviorTree
    id=\"0\" />\r\n          <ConditionEvalNode id=\"79\" />\r\n          <PrioritySelectorNode
    id=\"11\" />\r\n        </data>\r\n      </_data>\r\n    </ConditionEvalNode>\r\n   
    <PrioritySelectorNode id=\"78\">\r\n      <_data>\r\n        <data breakpoint=\"0\"
    selected=\"False\" position=\"826.833 364.4998\" name=\"Priority Selector\" description=\"\"
    cardinality=\"1\" hasParent=\"False\">\r\n          <BehaviorTree id=\"0\" />\r\n         
    <PrioritySelectorNode id=\"78\" />\r\n        </data>\r\n      </_data>\r\n   
    </PrioritySelectorNode>\r\n    <ConditionEvalNode id=\"80\">\r\n      <_data>\r\n       
    <data breakpoint=\"0\" selected=\"False\" position=\"1274.946 872.9706\" name=\"Perception/CheckTargetDistance\"
    description=\"Eval\" cardinality=\"1\" hasParent=\"True\">\r\n          <BehaviorTree
    id=\"0\" />\r\n          <ConditionEvalNode id=\"80\" />\r\n          <PrioritySelectorNode
    id=\"78\" />\r\n        </data>\r\n      </_data>\r\n    </ConditionEvalNode>\r\n   
    <PrioritySelectorNode id=\"59\">\r\n      <_data>\r\n        <data breakpoint=\"0\"
    selected=\"False\" position=\"807.2015 608.5837\" name=\"Priority Selector\"
    description=\"\" cardinality=\"1\" hasParent=\"False\">\r\n          <BehaviorTree
    id=\"0\" />\r\n          <PrioritySelectorNode id=\"59\" />\r\n        </data>\r\n     
    </_data>\r\n    </PrioritySelectorNode>\r\n    <ConditionEvalNode id=\"61\">\r\n     
    <_data>\r\n        <data breakpoint=\"0\" selected=\"False\" position=\"700.1121
    1220.419\" name=\"Perception/IsTargetClose\" description=\"Eval\" cardinality=\"1\"
    hasParent=\"True\">\r\n          <BehaviorTree id=\"0\" />\r\n          <ConditionEvalNode
    id=\"61\" />\r\n          <PrioritySelectorNode id=\"59\" />\r\n        </data>\r\n     
    </_data>\r\n    </ConditionEvalNode>\r\n    <SequenceNode id=\"52\">\r\n     
    <_data>\r\n        <data breakpoint=\"0\" selected=\"False\" position=\"522.6963
    756.1667\" name=\"Sequence\" description=\"Executes all its children in sequence
    until all of them are successful\" cardinality=\"-1\" hasParent=\"False\">\r\n         
    <BehaviorTree id=\"0\" />\r\n          <SequenceNode id=\"52\" />\r\n       
    </data>\r\n      </_data>\r\n    </SequenceNode>\r\n    <ConditionEvalNode id=\"71\">\r\n     
    <_data>\r\n        <data breakpoint=\"0\" selected=\"False\" position=\"1946.39
    1185.197\" name=\"AlwaysTrue\" description=\"Eval\" cardinality=\"1\" hasParent=\"True\">\r\n         
    <BehaviorTree id=\"0\" />\r\n          <ConditionEvalNode id=\"71\" />\r\n         
    <PrioritySelectorNode id=\"59\" />\r\n        </data>\r\n      </_data>\r\n   
    </ConditionEvalNode>\r\n    <PrioritySelectorNode id=\"48\">\r\n      <_data>\r\n       
    <data breakpoint=\"0\" selected=\"False\" position=\"1167.087 752.5558\" name=\"Priority
    Selector\" description=\"\" cardinality=\"1\" hasParent=\"False\">\r\n         
    <BehaviorTree id=\"0\" />\r\n          <PrioritySelectorNode id=\"48\" />\r\n       
    </data>\r\n      </_data>\r\n    </PrioritySelectorNode>\r\n    <ActionNode id=\"55\">\r\n     
    <_data>\r\n        <data breakpoint=\"0\" selected=\"False\" position=\"209.4474
    1019.64\" name=\"Basic/WaitForSeconds\" description=\"Action that success after
    a period of time.\" cardinality=\"0\" hasParent=\"True\">\r\n          <BehaviorTree
    id=\"0\" />\r\n          <ActionNode id=\"55\" />\r\n          <SequenceNode
    id=\"52\" />\r\n        </data>\r\n      </_data>\r\n    </ActionNode>\r\n   
    <ConditionNode id=\"56\">\r\n      <_data>\r\n        <data breakpoint=\"0\"
    selected=\"False\" position=\"437.9185 1002.001\" name=\"Perception/IsTargetClose\"
    description=\"Checks whether a target is close depending on a given distance\"
    cardinality=\"0\" hasParent=\"True\">\r\n          <BehaviorTree id=\"0\" />\r\n         
    <ConditionNode id=\"56\" />\r\n          <SequenceNode id=\"52\" />\r\n       
    </data>\r\n      </_data>\r\n    </ConditionNode>\r\n    <ActionNode id=\"57\">\r\n     
    <_data>\r\n        <data breakpoint=\"0\" selected=\"False\" position=\"646.1147
    997.9729\" name=\"RatAction/Attack\" description=\"Attacking action of the Rat\"
    cardinality=\"0\" hasParent=\"True\">\r\n          <BehaviorTree id=\"0\" />\r\n         
    <ActionNode id=\"57\" />\r\n          <SequenceNode id=\"52\" />\r\n        </data>\r\n     
    </_data>\r\n    </ActionNode>\r\n    <ActionNode id=\"58\">\r\n      <_data>\r\n       
    <data breakpoint=\"0\" selected=\"False\" position=\"804.3104 992.556\" name=\"Basic/WaitForSeconds\"
    description=\"Action that success after a period of time.\" cardinality=\"0\"
    hasParent=\"True\">\r\n          <BehaviorTree id=\"0\" />\r\n          <ActionNode
    id=\"58\" />\r\n          <SequenceNode id=\"52\" />\r\n        </data>\r\n     
    </_data>\r\n    </ActionNode>\r\n    <ConditionEvalNode id=\"50\">\r\n      <_data>\r\n       
    <data breakpoint=\"0\" selected=\"False\" position=\"1160.458 1059.997\" name=\"Perception/CheckEboDistance\"
    description=\"Eval\" cardinality=\"1\" hasParent=\"True\">\r\n          <BehaviorTree
    id=\"0\" />\r\n          <ConditionEvalNode id=\"50\" />\r\n          <PrioritySelectorNode
    id=\"48\" />\r\n        </data>\r\n      </_data>\r\n    </ConditionEvalNode>\r\n   
    <ActionNode id=\"15\">\r\n      <_data>\r\n        <data breakpoint=\"0\" selected=\"True\"
    position=\"1063.857 972.2382\" name=\"Navigation/MoveToGameObject\" description=\"Moves
    the game object towards a given target by using a NavMeshAgent\" cardinality=\"0\"
    hasParent=\"False\">\r\n          <BehaviorTree id=\"35\" />\r\n        </data>\r\n     
    </_data>\r\n    </ActionNode>\r\n    <ConditionEvalNode id=\"51\">\r\n      <_data>\r\n       
    <data breakpoint=\"0\" selected=\"False\" position=\"1436.159 1068.097\" name=\"Perception/CheckCCDistance\"
    description=\"Eval\" cardinality=\"1\" hasParent=\"True\">\r\n          <BehaviorTree
    id=\"0\" />\r\n          <ConditionEvalNode id=\"51\" />\r\n          <PrioritySelectorNode
    id=\"48\" />\r\n        </data>\r\n      </_data>\r\n    </ConditionEvalNode>\r\n   
    <ActionNode id=\"37\">\r\n      <_data>\r\n        <data breakpoint=\"0\" selected=\"False\"
    position=\"1311.931 980.1388\" name=\"Navigation/MoveToGameObject\" description=\"Moves
    the game object towards a given target by using a NavMeshAgent\" cardinality=\"0\"
    hasParent=\"False\">\r\n          <BehaviorTree id=\"37\" />\r\n        </data>\r\n     
    </_data>\r\n    </ActionNode>\r\n    <ConditionEvalNode id=\"0\">\r\n      <_data>\r\n       
    <data breakpoint=\"0\" selected=\"False\" position=\"0 0\" name=\"AlwaysTrue\"
    description=\"Eval\" cardinality=\"1\" hasParent=\"False\">\r\n          <BehaviorTree
    id=\"0\" />\r\n        </data>\r\n      </_data>\r\n    </ConditionEvalNode>\r\n 
    </editorInfo>\r\n  <runtimeInfo>\r\n    <BehaviorTree id=\"35\" nextId=\"1\">\r\n     
    <inputParams />\r\n      <outputParams />\r\n      <localParams />\r\n    </BehaviorTree>\r\n   
    <BehaviorTree id=\"37\" nextId=\"1\">\r\n      <inputParams />\r\n      <outputParams
    />\r\n      <localParams />\r\n    </BehaviorTree>\r\n  </runtimeInfo>\r\n  <editorInfo>\r\n   
    <BehaviorTree id=\"35\" _removeIfClosed=\"False\">\r\n      <_rootList />\r\n     
    <_nodes>\r\n        <nodes />\r\n      </_nodes>\r\n    </BehaviorTree>\r\n   
    <BehaviorTree id=\"37\" _removeIfClosed=\"False\">\r\n      <_rootList />\r\n     
    <_nodes>\r\n        <nodes />\r\n      </_nodes>\r\n    </BehaviorTree>\r\n 
    </editorInfo>\r\n</BehaviorBricks>"
  zoom: 0.6
  subslist: []
  _guid: f2536858bd0c157429bc6d976b356ef4
