%YAML 1.1
%TAG !u! tag:unity3d.com,2011:
--- !u!114 &11400000
MonoBehaviour:
  m_ObjectHideFlags: 0
  m_CorrespondingSourceObject: {fileID: 0}
  m_PrefabInstance: {fileID: 0}
  m_PrefabAsset: {fileID: 0}
  m_GameObject: {fileID: 0}
  m_Enabled: 1
  m_EditorHideFlags: 0
  m_Script: {fileID: 11500000, guid: 659a36d408d332c4481777bdaebddd12, type: 3}
  m_Name: EBO_Stats
  m_EditorClassIdentifier: 
  name: Ebo
  health: 0
  maxHealth: 10
  currentPoison: 102
  maxPoison: 100
